\relax 
\providecommand\hyper@newdestlabel[2]{}
\providecommand\babel@aux[2]{}
\@nameuse{bbl@beforestart}
\providecommand\HyperFirstAtBeginDocument{\AtBeginDocument}
\HyperFirstAtBeginDocument{\ifx\hyper@anchor\@undefined
\global\let\oldcontentsline\contentsline
\gdef\contentsline#1#2#3#4{\oldcontentsline{#1}{#2}{#3}}
\global\let\oldnewlabel\newlabel
\gdef\newlabel#1#2{\newlabelxx{#1}#2}
\gdef\newlabelxx#1#2#3#4#5#6{\oldnewlabel{#1}{{#2}{#3}}}
\AtEndDocument{\ifx\hyper@anchor\@undefined
\let\contentsline\oldcontentsline
\let\newlabel\oldnewlabel
\fi}
\fi}
\global\let\hyper@last\relax 
\gdef\HyperFirstAtBeginDocument#1{#1}
\providecommand\HyField@AuxAddToFields[1]{}
\providecommand\HyField@AuxAddToCoFields[2]{}
\babel@aux{english}{}
\@writefile{toc}{\contentsline {chapter}{\numberline {1}Informe Ejecutivo}{1}{chapter.1}\protected@file@percent }
\@writefile{lof}{\addvspace {10\p@ }}
\@writefile{lot}{\addvspace {10\p@ }}
\@writefile{lot}{\contentsline {table}{\numberline {1.1}{\ignorespaces Sitios examinados durante el test de intrusión\relax }}{1}{table.caption.2}\protected@file@percent }
\providecommand*\caption@xref[2]{\@setref\relax\@undefined{#1}}
\newlabel{tbl:web-sites}{{1.1}{1}{Sitios examinados durante el test de intrusión\relax }{table.caption.2}{}}
\@writefile{lof}{\contentsline {figure}{\numberline {1.1}{\ignorespaces Recuento de vulnerabilidades\relax }}{1}{figure.caption.3}\protected@file@percent }
\newlabel{img:plotvuln}{{1.1}{1}{Recuento de vulnerabilidades\relax }{figure.caption.3}{}}
\@writefile{toc}{\contentsline {section}{\numberline {1.1}Resumen de vulnerabilidades}{2}{section.1.1}\protected@file@percent }
\@writefile{lot}{\contentsline {table}{\numberline {1.2}{\ignorespaces Vulnerabilidades encontradas\relax }}{2}{table.caption.4}\protected@file@percent }
\newlabel{tbl:vuln overview}{{1.2}{2}{Vulnerabilidades encontradas\relax }{table.caption.4}{}}
\@writefile{toc}{\contentsline {chapter}{\numberline {2}Reconocimiento (Footprinting)}{3}{chapter.2}\protected@file@percent }
\@writefile{lof}{\addvspace {10\p@ }}
\@writefile{lot}{\addvspace {10\p@ }}
\@writefile{toc}{\contentsline {section}{\numberline {2.1}Lanzamiento de ReconFTW}{3}{section.2.1}\protected@file@percent }
\@writefile{lol}{\contentsline {lstlisting}{\numberline {2.1}{\ignorespaces Comandos para ejecución de ReconFTW}}{3}{lstlisting.2.1}\protected@file@percent }
\@writefile{toc}{\contentsline {section}{\numberline {2.2}Footprinting Vertical y Horizontal}{3}{section.2.2}\protected@file@percent }
\@writefile{lot}{\contentsline {table}{\numberline {2.1}{\ignorespaces Dominios e IPs\relax }}{4}{table.caption.5}\protected@file@percent }
\newlabel{tbl:ips}{{2.1}{4}{Dominios e IPs\relax }{table.caption.5}{}}
\@writefile{toc}{\contentsline {subsection}{\numberline {2.2.1}Servicios a la escucha}{4}{subsection.2.2.1}\protected@file@percent }
\@writefile{lol}{\contentsline {lstlisting}{\numberline {2.2}{\ignorespaces Ejecuciones de Nmap}}{4}{lstlisting.2.2}\protected@file@percent }
\@writefile{lot}{\contentsline {table}{\numberline {2.2}{\ignorespaces Servicios a la escucha\relax }}{5}{table.caption.6}\protected@file@percent }
\newlabel{tbl:servicios}{{2.2}{5}{Servicios a la escucha\relax }{table.caption.6}{}}
\@writefile{lof}{\contentsline {figure}{\numberline {2.1}{\ignorespaces Escaneo de Sistema Operativo con lanzamiento de scripts con Nmap\relax }}{5}{figure.caption.7}\protected@file@percent }
\newlabel{nmap}{{2.1}{5}{Escaneo de Sistema Operativo con lanzamiento de scripts con Nmap\relax }{figure.caption.7}{}}
\@writefile{toc}{\contentsline {subsection}{\numberline {2.2.2}Tecnologías}{5}{subsection.2.2.2}\protected@file@percent }
\@writefile{toc}{\contentsline {subsection}{\numberline {2.2.3}Web Crawling}{6}{subsection.2.2.3}\protected@file@percent }
\@writefile{lof}{\contentsline {figure}{\numberline {2.2}{\ignorespaces Petición de artículos al servicio en escucha en el puerto 3001\relax }}{6}{figure.caption.8}\protected@file@percent }
\newlabel{api}{{2.2}{6}{Petición de artículos al servicio en escucha en el puerto 3001\relax }{figure.caption.8}{}}
\@writefile{lof}{\contentsline {figure}{\numberline {2.3}{\ignorespaces Sitemap generado por Burp Suite\relax }}{7}{figure.caption.9}\protected@file@percent }
\newlabel{img:burpsitemap}{{2.3}{7}{Sitemap generado por Burp Suite\relax }{figure.caption.9}{}}
\@writefile{toc}{\contentsline {subsection}{\numberline {2.2.4}Tecnologías Web}{7}{subsection.2.2.4}\protected@file@percent }
\@writefile{lol}{\contentsline {lstlisting}{\numberline {2.3}{\ignorespaces Ejecución de Wappalyzer}}{7}{lstlisting.2.3}\protected@file@percent }
\@writefile{lof}{\contentsline {figure}{\numberline {2.4}{\ignorespaces Tecnologias empleadas encontradas mediante Wappalyzer\relax }}{7}{figure.caption.10}\protected@file@percent }
\newlabel{api}{{2.4}{7}{Tecnologias empleadas encontradas mediante Wappalyzer\relax }{figure.caption.10}{}}
\@writefile{lot}{\contentsline {table}{\numberline {2.3}{\ignorespaces Tecnologías en aplicación Web\relax }}{8}{table.caption.11}\protected@file@percent }
\newlabel{tbl:wappalyzer}{{2.3}{8}{Tecnologías en aplicación Web\relax }{table.caption.11}{}}
\@writefile{toc}{\contentsline {section}{\numberline {2.3}OSINT}{8}{section.2.3}\protected@file@percent }
\@writefile{lol}{\contentsline {lstlisting}{\numberline {2.4}{\ignorespaces Ejecución de holehe}}{8}{lstlisting.2.4}\protected@file@percent }
\@writefile{toc}{\contentsline {subsection}{\numberline {2.3.1}Enlaces a repositorio}{8}{subsection.2.3.1}\protected@file@percent }
\@writefile{toc}{\contentsline {chapter}{\numberline {3}Resultados}{9}{chapter.3}\protected@file@percent }
\@writefile{lof}{\addvspace {10\p@ }}
\@writefile{lot}{\addvspace {10\p@ }}
\@writefile{toc}{\contentsline {section}{\numberline {3.1}Vulnerabilidades a nivel de infraestructura}{9}{section.3.1}\protected@file@percent }
\@writefile{toc}{\contentsline {subsection}{\numberline {3.1.1}Inyección de Comandos y Escalada de privilegios}{9}{subsection.3.1.1}\protected@file@percent }
\newlabel{ss:inyeccion}{{3.1.1}{9}{Inyección de Comandos y Escalada de privilegios}{subsection.3.1.1}{}}
\@writefile{toc}{\contentsline {subsubsection}{\numberline {3.1.1.1}Obtención}{9}{subsubsection.3.1.1.1}\protected@file@percent }
\@writefile{lol}{\contentsline {lstlisting}{\numberline {3.1}{\ignorespaces Ejecución de Nmap con scripts de vulnerabiliades}}{9}{lstlisting.3.1}\protected@file@percent }
\@writefile{lot}{\contentsline {table}{\numberline {3.1}{\ignorespaces Vulnerabilidades encontradas con Nmap\relax }}{9}{table.caption.12}\protected@file@percent }
\newlabel{tbl:nmapvulns}{{3.1}{9}{Vulnerabilidades encontradas con Nmap\relax }{table.caption.12}{}}
\@writefile{toc}{\contentsline {subsubsection}{\numberline {3.1.1.2}Recomendaciones}{9}{subsubsection.3.1.1.2}\protected@file@percent }
\@writefile{toc}{\contentsline {subsubsection}{\numberline {3.1.1.3}Información}{10}{subsubsection.3.1.1.3}\protected@file@percent }
\@writefile{lof}{\contentsline {figure}{\numberline {3.1}{\ignorespaces Exploración de vulnerabilidades a nivel de infraestructura con Nmap\relax }}{10}{figure.caption.13}\protected@file@percent }
\newlabel{img:nmapvulns}{{3.1}{10}{Exploración de vulnerabilidades a nivel de infraestructura con Nmap\relax }{figure.caption.13}{}}
\@writefile{toc}{\contentsline {section}{\numberline {3.2}Vulnerabilidades Web}{10}{section.3.2}\protected@file@percent }
\@writefile{toc}{\contentsline {subsection}{\numberline {3.2.1}Denegación de Servicio}{11}{subsection.3.2.1}\protected@file@percent }
\newlabel{ss:dos}{{3.2.1}{11}{Denegación de Servicio}{subsection.3.2.1}{}}
\@writefile{toc}{\contentsline {subsubsection}{\numberline {3.2.1.1}Obtención}{11}{subsubsection.3.2.1.1}\protected@file@percent }
\@writefile{lot}{\contentsline {table}{\numberline {3.2}{\ignorespaces Vulnerabilidad encontradas con Snyk\relax }}{11}{table.caption.14}\protected@file@percent }
\newlabel{tbl:snykvulns}{{3.2}{11}{Vulnerabilidad encontradas con Snyk\relax }{table.caption.14}{}}
\@writefile{toc}{\contentsline {subsubsection}{\numberline {3.2.1.2}Descripción}{11}{subsubsection.3.2.1.2}\protected@file@percent }
\@writefile{toc}{\contentsline {subsubsection}{\numberline {3.2.1.3}Recomendaciones}{11}{subsubsection.3.2.1.3}\protected@file@percent }
\@writefile{toc}{\contentsline {subsubsection}{\numberline {3.2.1.4}Enlaces}{11}{subsubsection.3.2.1.4}\protected@file@percent }
\@writefile{toc}{\contentsline {subsection}{\numberline {3.2.2}Cross-Site Request Forgery (CSRF)}{12}{subsection.3.2.2}\protected@file@percent }
\newlabel{ss:csrf}{{3.2.2}{12}{Cross-Site Request Forgery (CSRF)}{subsection.3.2.2}{}}
\@writefile{toc}{\contentsline {subsubsection}{\numberline {3.2.2.1}Obtención}{12}{subsubsection.3.2.2.1}\protected@file@percent }
\@writefile{toc}{\contentsline {subsubsection}{\numberline {3.2.2.2}Descripción}{12}{subsubsection.3.2.2.2}\protected@file@percent }
\@writefile{lot}{\contentsline {table}{\numberline {3.3}{\ignorespaces Vulnerabilidad encontrada con BurpSuite\relax }}{12}{table.caption.15}\protected@file@percent }
\newlabel{tbl:csrf}{{3.3}{12}{Vulnerabilidad encontrada con BurpSuite\relax }{table.caption.15}{}}
\@writefile{toc}{\contentsline {subsubsection}{\numberline {3.2.2.3}Recomendaciones}{12}{subsubsection.3.2.2.3}\protected@file@percent }
\@writefile{toc}{\contentsline {subsubsection}{\numberline {3.2.2.4}Enlaces}{12}{subsubsection.3.2.2.4}\protected@file@percent }
\@writefile{toc}{\contentsline {subsection}{\numberline {3.2.3}Configuración y uso de token JWT}{12}{subsection.3.2.3}\protected@file@percent }
\newlabel{ss:jwt}{{3.2.3}{12}{Configuración y uso de token JWT}{subsection.3.2.3}{}}
\@writefile{toc}{\contentsline {subsubsection}{\numberline {3.2.3.1}Obtención}{12}{subsubsection.3.2.3.1}\protected@file@percent }
\@writefile{lof}{\contentsline {figure}{\numberline {3.2}{\ignorespaces Captura del token JWT\relax }}{13}{figure.caption.16}\protected@file@percent }
\newlabel{img:tokenjwt}{{3.2}{13}{Captura del token JWT\relax }{figure.caption.16}{}}
\@writefile{lof}{\contentsline {figure}{\numberline {3.3}{\ignorespaces Análisis del token JWT\relax }}{13}{figure.caption.17}\protected@file@percent }
\newlabel{img:analisistokenjwt}{{3.3}{13}{Análisis del token JWT\relax }{figure.caption.17}{}}
\@writefile{toc}{\contentsline {subsubsection}{\numberline {3.2.3.2}Descripción}{13}{subsubsection.3.2.3.2}\protected@file@percent }
\@writefile{lof}{\contentsline {figure}{\numberline {3.4}{\ignorespaces Expiración del token JWT\relax }}{14}{figure.caption.18}\protected@file@percent }
\newlabel{img:expiraciotokenjwt}{{3.4}{14}{Expiración del token JWT\relax }{figure.caption.18}{}}
\@writefile{lot}{\contentsline {table}{\numberline {3.4}{\ignorespaces Vulnerabilidades token JWT\relax }}{14}{table.caption.19}\protected@file@percent }
\newlabel{tbl:jwtvulns}{{3.4}{14}{Vulnerabilidades token JWT\relax }{table.caption.19}{}}
\@writefile{toc}{\contentsline {subsubsection}{\numberline {3.2.3.3}Recomendaciones}{14}{subsubsection.3.2.3.3}\protected@file@percent }
\@writefile{toc}{\contentsline {subsection}{\numberline {3.2.4}Securización durante proceso de login}{14}{subsection.3.2.4}\protected@file@percent }
\newlabel{ss:login}{{3.2.4}{14}{Securización durante proceso de login}{subsection.3.2.4}{}}
\@writefile{toc}{\contentsline {subsubsection}{\numberline {3.2.4.1}Obtención}{14}{subsubsection.3.2.4.1}\protected@file@percent }
\@writefile{lof}{\contentsline {figure}{\numberline {3.5}{\ignorespaces Captura de solicitud de login\relax }}{15}{figure.caption.20}\protected@file@percent }
\newlabel{img:capturalogin}{{3.5}{15}{Captura de solicitud de login\relax }{figure.caption.20}{}}
\@writefile{lof}{\contentsline {figure}{\numberline {3.6}{\ignorespaces Configuración Intruder para ataque de furza bruta\relax }}{15}{figure.caption.21}\protected@file@percent }
\newlabel{img:bruteforce}{{3.6}{15}{Configuración Intruder para ataque de furza bruta\relax }{figure.caption.21}{}}
\@writefile{toc}{\contentsline {subsubsection}{\numberline {3.2.4.2}Descripción}{15}{subsubsection.3.2.4.2}\protected@file@percent }
\@writefile{lot}{\contentsline {table}{\numberline {3.5}{\ignorespaces Vulnerabilidad proceso de login\relax }}{15}{table.caption.24}\protected@file@percent }
\newlabel{tbl:loginvuln}{{3.5}{15}{Vulnerabilidad proceso de login\relax }{table.caption.24}{}}
\@writefile{lof}{\contentsline {figure}{\numberline {3.7}{\ignorespaces Solicitud de login\relax }}{16}{figure.caption.22}\protected@file@percent }
\newlabel{img:reqlogin}{{3.7}{16}{Solicitud de login\relax }{figure.caption.22}{}}
\@writefile{lof}{\contentsline {figure}{\numberline {3.8}{\ignorespaces Respuesta del servidor\relax }}{16}{figure.caption.23}\protected@file@percent }
\newlabel{img:reslogin}{{3.8}{16}{Respuesta del servidor\relax }{figure.caption.23}{}}
\@writefile{toc}{\contentsline {subsubsection}{\numberline {3.2.4.3}Recomendaciones}{16}{subsubsection.3.2.4.3}\protected@file@percent }
\@writefile{toc}{\contentsline {subsection}{\numberline {3.2.5}Servicio SSH visible}{16}{subsection.3.2.5}\protected@file@percent }
\newlabel{ss:informativa}{{3.2.5}{16}{Servicio SSH visible}{subsection.3.2.5}{}}
\@writefile{toc}{\contentsline {subsubsection}{\numberline {3.2.5.1}Obtención}{16}{subsubsection.3.2.5.1}\protected@file@percent }
\@writefile{toc}{\contentsline {subsubsection}{\numberline {3.2.5.2}Descripción}{17}{subsubsection.3.2.5.2}\protected@file@percent }
\@writefile{lot}{\contentsline {table}{\numberline {3.6}{\ignorespaces Servicio SSH\relax }}{17}{table.caption.25}\protected@file@percent }
\newlabel{tbl:sshport}{{3.6}{17}{Servicio SSH\relax }{table.caption.25}{}}
\@writefile{toc}{\contentsline {subsubsection}{\numberline {3.2.5.3}Recomendaciones}{17}{subsubsection.3.2.5.3}\protected@file@percent }
\@writefile{toc}{\contentsline {subsubsection}{\numberline {3.2.5.4}Enlaces}{17}{subsubsection.3.2.5.4}\protected@file@percent }
\@writefile{toc}{\contentsline {section}{\numberline {3.3}Otras pruebas}{17}{section.3.3}\protected@file@percent }
\@writefile{toc}{\contentsline {subsection}{\numberline {3.3.1}Análisis de caja blanca del código fuente}{18}{subsection.3.3.1}\protected@file@percent }
\@writefile{lof}{\contentsline {figure}{\numberline {3.9}{\ignorespaces Código Subido a la Plataforma\relax }}{18}{figure.caption.26}\protected@file@percent }
\newlabel{img:codeupload}{{3.9}{18}{Código Subido a la Plataforma\relax }{figure.caption.26}{}}
\@writefile{lof}{\contentsline {figure}{\numberline {3.10}{\ignorespaces Función de gestión de extensiones\relax }}{19}{figure.caption.27}\protected@file@percent }
\newlabel{img:codevulns}{{3.10}{19}{Función de gestión de extensiones\relax }{figure.caption.27}{}}
\@writefile{toc}{\contentsline {subsection}{\numberline {3.3.2}Ataques de diccionario personalizado}{19}{subsection.3.3.2}\protected@file@percent }
\@writefile{toc}{\contentsline {subsubsection}{\numberline {3.3.2.1}Ejecución}{19}{subsubsection.3.3.2.1}\protected@file@percent }
\@writefile{lol}{\contentsline {lstlisting}{\numberline {3.2}{\ignorespaces Generación de diccionario personalizado}}{19}{lstlisting.3.2}\protected@file@percent }
\@writefile{toc}{\contentsline {subsection}{\numberline {3.3.3}Pruebas de rotura de token JWT}{20}{subsection.3.3.3}\protected@file@percent }
\@writefile{lot}{\contentsline {table}{\numberline {3.7}{\ignorespaces Configuraciones GCP\relax }}{20}{table.caption.28}\protected@file@percent }
\newlabel{tbl:gcp}{{3.7}{20}{Configuraciones GCP\relax }{table.caption.28}{}}
\@writefile{toc}{\contentsline {subsubsection}{\numberline {3.3.3.1}Descripción del proceso}{20}{subsubsection.3.3.3.1}\protected@file@percent }
\@writefile{lol}{\contentsline {lstlisting}{\numberline {3.3}{\ignorespaces Instalación de Hashcat en la máquina virtual en GCP}}{20}{lstlisting.3.3}\protected@file@percent }
\@writefile{lof}{\contentsline {figure}{\numberline {3.11}{\ignorespaces Lanzamiento de Hashcat\relax }}{21}{figure.caption.29}\protected@file@percent }
\newlabel{img:hashcat1}{{3.11}{21}{Lanzamiento de Hashcat\relax }{figure.caption.29}{}}
\@writefile{lol}{\contentsline {lstlisting}{\numberline {3.4}{\ignorespaces Búsqueda de clave con diccionarios y reglas comunes}}{21}{lstlisting.3.4}\protected@file@percent }
\@writefile{lol}{\contentsline {lstlisting}{\numberline {3.5}{\ignorespaces Búsqueda de clave con diccionarios obtenidos mediante scrapping web y reglas comunes}}{21}{lstlisting.3.5}\protected@file@percent }
\@writefile{lof}{\contentsline {figure}{\numberline {3.12}{\ignorespaces Resultado de ejecución de hashcat\relax }}{22}{figure.caption.30}\protected@file@percent }
\newlabel{img:hashcat2}{{3.12}{22}{Resultado de ejecución de hashcat\relax }{figure.caption.30}{}}
\@writefile{toc}{\contentsline {subsubsection}{\numberline {3.3.3.2}Referencias}{22}{subsubsection.3.3.3.2}\protected@file@percent }
\@writefile{toc}{\contentsline {chapter}{\numberline {4}Anexos}{23}{chapter.4}\protected@file@percent }
\@writefile{lof}{\addvspace {10\p@ }}
\@writefile{lot}{\addvspace {10\p@ }}
\@writefile{toc}{\contentsline {section}{\numberline {4.1}Herramientas}{23}{section.4.1}\protected@file@percent }
\newlabel{herramientas}{{4.1}{23}{Herramientas}{section.4.1}{}}
\newlabel{LastPage}{{}{23}{}{page.23}{}}
\xdef\lastpage@lastpage{23}
\xdef\lastpage@lastpageHy{23}
\gdef \@abspage@last{26}
