{
  "urls": {
    "https://api.elultimoymevoy.com/": {
      "status": 200
    }
  },
  "technologies": [
    {
      "slug": "node-js",
      "name": "Node.js",
      "confidence": 100,
      "version": null,
      "icon": "node.js.png",
      "website": "http://nodejs.org",
      "cpe": "cpe:/a:nodejs:node.js",
      "categories": [
        {
          "id": 27,
          "slug": "programming-languages",
          "name": "Programming languages"
        }
      ]
    },
    {
      "slug": "nginx",
      "name": "Nginx",
      "confidence": 100,
      "version": null,
      "icon": "Nginx.svg",
      "website": "http://nginx.org/en",
      "cpe": "cpe:/a:nginx:nginx",
      "categories": [
        {
          "id": 22,
          "slug": "web-servers",
          "name": "Web servers"
        },
        {
          "id": 64,
          "slug": "reverse-proxies",
          "name": "Reverse proxies"
        }
      ]
    },
    {
      "slug": "express",
      "name": "Express",
      "confidence": 100,
      "version": null,
      "icon": "Express.png",
      "website": "http://expressjs.com",
      "cpe": "cpe:/a:expressjs:express",
      "categories": [
        {
          "id": 18,
          "slug": "web-frameworks",
          "name": "Web frameworks"
        },
        {
          "id": 22,
          "slug": "web-servers",
          "name": "Web servers"
        }
      ]
    }
  ]
}
